
<svg version="1.1" id="Layer_1" xmlns="http://www.w3.org/2000/svg" xmlns:xlink="http://www.w3.org/1999/xlink" xml:space="preserve"
  x="0px" y="0px"
  viewBox="0 0 190 31">
  <g>
    <rect fill="#FFBB00" x="0" y="0" width="190" height="30" rx="8"></rect>
    <path d="M158.5,0.5 L158.5,29.5200005" id="Line-3" stroke="#14151B" opacity="0.100000001" stroke-linecap="square"></path>
    <polygon fill="#14151B" points="178,14.5 177,13.5 174,14.5 171,13.5 170,14.5 174,17.5"/>
    <text font-family="Roboto-Medium, Roboto" font-size="14" font-weight="400" line-spacing="20" fill="#14151B">
      <tspan x="9" y="20">Metastase hinzufügen</tspan>
    </text>
  </g>
</svg>
