
<svg width="766px" height="618px" viewBox="0 0 766 618" version="1.1" xmlns="http://www.w3.org/2000/svg" xmlns:xlink="http://www.w3.org/1999/xlink">
    <!-- Generator: Sketch 49.3 (51167) - http://www.bohemiancoding.com/sketch -->
    <desc>Created with Sketch.</desc>
    <defs>
        <path d="M25.1936802,2.6916408 C12.7723597,3.55076107 -5.77752793,6.08390244 1.73714994,16.6428695 C9.2265684,27.2113122 24.963188,29.0369428 33.1219811,23.7685141 C41.2870891,18.4842927 62.9217835,16.6618207 83.3250812,20.8342394 C103.725221,25.0003409 180.311787,44.1315595 196.515706,40.5150422 C215.65919,36.2162823 236.18247,59.5957243 229.76342,54.2483323 C234.177503,57.9248617 252.357972,79.519734 264.403559,61.3297575 C267.475736,56.6835593 277.677385,51.4372403 254.874442,38.5535948 C243.343516,32.0375466 224.250551,30.9004757 218.058835,29.633905 C211.873434,28.3704929 201.993843,26.3553505 192.366846,22.9978327 C182.746164,19.6371563 105.272361,7.95375243 93.438322,2.77060406 C81.6263851,-2.42833696 50.6678067,0.967083209 25.1936802,2.6916408 Z" id="path-1"></path>
        <filter x="-56.1%" y="-217.4%" width="212.1%" height="540.7%" filterUnits="objectBoundingBox" id="filter-2">
            <feOffset dx="0" dy="2" in="SourceAlpha" result="shadowOffsetOuter1"></feOffset>
            <feGaussianBlur stdDeviation="50" in="shadowOffsetOuter1" result="shadowBlurOuter1"></feGaussianBlur>
            <feColorMatrix values="0 0 0 0 0   0 0 0 0 0   0 0 0 0 0  0 0 0 0.5 0" type="matrix" in="shadowBlurOuter1"></feColorMatrix>
        </filter>
        <path d="M565.290581,2.6916408 C577.71201,3.55076107 596.262058,6.08390244 588.747315,16.6428695 C581.257832,27.2113122 565.521076,29.0369428 557.362212,23.7685141 C549.20019,18.4842927 527.562151,16.6618207 507.161833,20.8342394 C486.761516,25.0003409 410.167971,44.1315595 393.970226,40.5150422 C374.826576,36.2162823 354.29996,59.5957243 360.725381,54.2483323 C356.311259,57.9248617 338.130633,79.519734 326.084942,61.3297575 C323.00958,56.6835593 312.804686,51.4372403 335.610984,38.5535948 C347.145167,32.0375466 366.228826,30.9004757 372.430067,29.633905 C378.60605,28.3704929 388.492041,26.3553505 398.115965,22.9978327 C407.739888,19.6371563 485.211206,7.95375243 497.048505,2.77060406 C508.857387,-2.42833696 539.813076,0.967083209 565.290581,2.6916408 Z" id="path-3"></path>
        <filter x="-56.1%" y="-217.4%" width="212.1%" height="540.7%" filterUnits="objectBoundingBox" id="filter-4">
            <feOffset dx="0" dy="2" in="SourceAlpha" result="shadowOffsetOuter1"></feOffset>
            <feGaussianBlur stdDeviation="50" in="shadowOffsetOuter1" result="shadowBlurOuter1"></feGaussianBlur>
            <feColorMatrix values="0 0 0 0 0   0 0 0 0 0   0 0 0 0 0  0 0 0 0.5 0" type="matrix" in="shadowBlurOuter1"></feColorMatrix>
        </filter>
        <linearGradient x1="50%" y1="100%" x2="50%" y2="3.061617e-15%" id="linearGradient-5">
            <stop stop-color="#18191E" offset="0%"></stop>
            <stop stop-color="#20212B" offset="100%"></stop>
        </linearGradient>
        <linearGradient x1="50%" y1="0%" x2="50%" y2="100%" id="linearGradient-6">
            <stop stop-color="#545454" offset="0%"></stop>
            <stop stop-color="#373737" offset="100%"></stop>
        </linearGradient>
        <path d="M31.5245386,82.7792783 C33.9000409,76.1093322 27.5516614,64.9770319 25.1793222,48.6465133 C22.2945579,28.7844769 32.3089921,-16.6661268 68.7860785,6.35320615 C105.260002,29.350526 117.545555,47.6181907 136.979758,71.6501226 C201.206886,151.073111 215.453573,252.663213 217.060437,269.084928 C219.173401,290.579073 226.979978,364.693778 224.996702,387.077878 C222.583243,414.436921 220.236208,436.811587 194.070889,430.871215 C167.902407,424.930844 146.497582,423.452827 132.222427,421.220077 C115.021387,418.547067 109.22339,418.264043 94.1574547,413.059535 C79.0915197,407.870751 59.2714171,400.436638 56.9022411,368.530334 C54.5204126,336.620884 56.1241138,333.501324 47.3749271,324.743285 C36.2881956,313.61413 33.9000409,299.506927 29.1458733,284.670149 C24.3790532,269.823937 21.2127712,263.877276 10.9010038,240.883101 C0.598725753,217.873202 -7.33437629,142.160981 10.9010038,113.213855 C29.1458733,84.2793086 30.6135604,85.3296443 31.5245386,82.7792783 Z" id="path-7"></path>
        <filter x="-7.3%" y="-3.4%" width="114.6%" height="107.6%" filterUnits="objectBoundingBox" id="filter-8">
            <feMorphology radius="0.5" operator="dilate" in="SourceAlpha" result="shadowSpreadOuter1"></feMorphology>
            <feOffset dx="0" dy="2" in="shadowSpreadOuter1" result="shadowOffsetOuter1"></feOffset>
            <feGaussianBlur stdDeviation="5" in="shadowOffsetOuter1" result="shadowBlurOuter1"></feGaussianBlur>
            <feComposite in="shadowBlurOuter1" in2="SourceAlpha" operator="out" result="shadowBlurOuter1"></feComposite>
            <feColorMatrix values="0 0 0 0 0.266666667   0 0 0 0 0.733333333   0 0 0 0 0.905882353  0 0 0 0.5 0" type="matrix" in="shadowBlurOuter1"></feColorMatrix>
        </filter>
        <linearGradient x1="50%" y1="0%" x2="50%" y2="100%" id="linearGradient-9">
            <stop stop-color="#1D1D1D" offset="0%"></stop>
            <stop stop-color="#292929" offset="100%"></stop>
        </linearGradient>
        <linearGradient x1="50%" y1="0%" x2="50%" y2="100%" id="linearGradient-10">
            <stop stop-color="#CBCBCB" offset="0%"></stop>
            <stop stop-color="#4E4E4E" offset="100%"></stop>
        </linearGradient>
        <path d="M101.401043,40.1892724 C118.724783,19.9376392 121.131385,19.2698298 131.760281,9.95514957 C142.389177,0.640469283 172.021058,-8.04105214 178.453422,13.0075423 C184.89211,34.0435365 181.12883,27.9702515 184.69604,39.9845196 C188.250601,51.9956376 185.973658,48.9558451 194.96442,64.8793178 C203.93937,80.7964904 218.888132,108.072722 221.686874,143.120112 C224.476129,178.180102 224.134588,259.249636 223.802534,292.712554 C223.479967,326.175472 190.246088,378.025198 151.528572,389.976465 C136.538699,394.61018 117.605286,408.19632 99.7945331,418.755267 C81.9806177,429.323665 66.6144157,438.474543 53.7908,442.5192 C40.9608595,446.557556 16.2908161,448.699586 7.84715295,416.433685 C-0.593347749,384.170934 -6.20031955,267.940608 12.5559973,205.339782 C31.7930021,141.145034 54.7458511,94.6692844 101.401043,40.1892724 Z" id="path-11"></path>
        <filter x="-7.4%" y="-3.3%" width="114.7%" height="107.4%" filterUnits="objectBoundingBox" id="filter-12">
            <feMorphology radius="0.5" operator="dilate" in="SourceAlpha" result="shadowSpreadOuter1"></feMorphology>
            <feOffset dx="0" dy="2" in="shadowSpreadOuter1" result="shadowOffsetOuter1"></feOffset>
            <feGaussianBlur stdDeviation="5" in="shadowOffsetOuter1" result="shadowBlurOuter1"></feGaussianBlur>
            <feComposite in="shadowBlurOuter1" in2="SourceAlpha" operator="out" result="shadowBlurOuter1"></feComposite>
            <feColorMatrix values="0 0 0 0 0.266666667   0 0 0 0 0.733333333   0 0 0 0 0.905882353  0 0 0 0.5 0" type="matrix" in="shadowBlurOuter1"></feColorMatrix>
        </filter>
        <filter x="-20.0%" y="-20.0%" width="140.0%" height="140.0%" filterUnits="objectBoundingBox" id="filter-13">
            <feOffset dx="0" dy="0" in="SourceAlpha" result="shadowOffsetOuter1"></feOffset>
            <feGaussianBlur stdDeviation="4" in="shadowOffsetOuter1" result="shadowBlurOuter1"></feGaussianBlur>
            <feColorMatrix values="0 0 0 0 0   0 0 0 0 0   0 0 0 0 0  0 0 0 0.5 0" type="matrix" in="shadowBlurOuter1" result="shadowMatrixOuter1"></feColorMatrix>
            <feMerge>
                <feMergeNode in="shadowMatrixOuter1"></feMergeNode>
                <feMergeNode in="SourceGraphic"></feMergeNode>
            </feMerge>
        </filter>
        <filter x="-20.0%" y="-20.0%" width="140.0%" height="140.0%" filterUnits="objectBoundingBox" id="filter-14">
            <feOffset dx="0" dy="0" in="SourceAlpha" result="shadowOffsetOuter1"></feOffset>
            <feGaussianBlur stdDeviation="4" in="shadowOffsetOuter1" result="shadowBlurOuter1"></feGaussianBlur>
            <feColorMatrix values="0 0 0 0 0   0 0 0 0 0   0 0 0 0 0  0 0 0 0.5 0" type="matrix" in="shadowBlurOuter1" result="shadowMatrixOuter1"></feColorMatrix>
            <feMerge>
                <feMergeNode in="shadowMatrixOuter1"></feMergeNode>
                <feMergeNode in="SourceGraphic"></feMergeNode>
            </feMerge>
        </filter>
        <filter x="-33.8%" y="-33.8%" width="167.5%" height="167.5%" filterUnits="objectBoundingBox" id="filter-15">
            <feOffset dx="0" dy="0" in="SourceAlpha" result="shadowOffsetOuter1"></feOffset>
            <feGaussianBlur stdDeviation="4.5" in="shadowOffsetOuter1" result="shadowBlurOuter1"></feGaussianBlur>
            <feColorMatrix values="0 0 0 0 0   0 0 0 0 0   0 0 0 0 0  0 0 0 0.5 0" type="matrix" in="shadowBlurOuter1" result="shadowMatrixOuter1"></feColorMatrix>
            <feMerge>
                <feMergeNode in="shadowMatrixOuter1"></feMergeNode>
                <feMergeNode in="SourceGraphic"></feMergeNode>
            </feMerge>
        </filter>
        <filter x="-30.0%" y="-30.0%" width="160.0%" height="160.0%" filterUnits="objectBoundingBox" id="filter-16">
            <feOffset dx="0" dy="0" in="SourceAlpha" result="shadowOffsetOuter1"></feOffset>
            <feGaussianBlur stdDeviation="4" in="shadowOffsetOuter1" result="shadowBlurOuter1"></feGaussianBlur>
            <feColorMatrix values="0 0 0 0 0   0 0 0 0 0   0 0 0 0 0  0 0 0 0.5 0" type="matrix" in="shadowBlurOuter1" result="shadowMatrixOuter1"></feColorMatrix>
            <feMerge>
                <feMergeNode in="shadowMatrixOuter1"></feMergeNode>
                <feMergeNode in="SourceGraphic"></feMergeNode>
            </feMerge>
        </filter>
        <filter x="-20.0%" y="-20.0%" width="140.0%" height="140.0%" filterUnits="objectBoundingBox" id="filter-17">
            <feOffset dx="0" dy="0" in="SourceAlpha" result="shadowOffsetOuter1"></feOffset>
            <feGaussianBlur stdDeviation="4" in="shadowOffsetOuter1" result="shadowBlurOuter1"></feGaussianBlur>
            <feColorMatrix values="0 0 0 0 0   0 0 0 0 0   0 0 0 0 0  0 0 0 0.5 0" type="matrix" in="shadowBlurOuter1" result="shadowMatrixOuter1"></feColorMatrix>
            <feMerge>
                <feMergeNode in="shadowMatrixOuter1"></feMergeNode>
                <feMergeNode in="SourceGraphic"></feMergeNode>
            </feMerge>
        </filter>
        <filter x="-33.8%" y="-33.8%" width="167.5%" height="167.5%" filterUnits="objectBoundingBox" id="filter-18">
            <feOffset dx="0" dy="0" in="SourceAlpha" result="shadowOffsetOuter1"></feOffset>
            <feGaussianBlur stdDeviation="4.5" in="shadowOffsetOuter1" result="shadowBlurOuter1"></feGaussianBlur>
            <feColorMatrix values="0 0 0 0 0   0 0 0 0 0   0 0 0 0 0  0 0 0 0.5 0" type="matrix" in="shadowBlurOuter1" result="shadowMatrixOuter1"></feColorMatrix>
            <feMerge>
                <feMergeNode in="shadowMatrixOuter1"></feMergeNode>
                <feMergeNode in="SourceGraphic"></feMergeNode>
            </feMerge>
        </filter>
        <filter x="-30.0%" y="-30.0%" width="160.0%" height="160.0%" filterUnits="objectBoundingBox" id="filter-19">
            <feOffset dx="0" dy="0" in="SourceAlpha" result="shadowOffsetOuter1"></feOffset>
            <feGaussianBlur stdDeviation="4" in="shadowOffsetOuter1" result="shadowBlurOuter1"></feGaussianBlur>
            <feColorMatrix values="0 0 0 0 0   0 0 0 0 0   0 0 0 0 0  0 0 0 0.5 0" type="matrix" in="shadowBlurOuter1" result="shadowMatrixOuter1"></feColorMatrix>
            <feMerge>
                <feMergeNode in="shadowMatrixOuter1"></feMergeNode>
                <feMergeNode in="SourceGraphic"></feMergeNode>
            </feMerge>
        </filter>
        <filter x="-30.0%" y="-30.0%" width="160.0%" height="160.0%" filterUnits="objectBoundingBox" id="filter-20">
            <feOffset dx="0" dy="0" in="SourceAlpha" result="shadowOffsetOuter1"></feOffset>
            <feGaussianBlur stdDeviation="4" in="shadowOffsetOuter1" result="shadowBlurOuter1"></feGaussianBlur>
            <feColorMatrix values="0 0 0 0 0   0 0 0 0 0   0 0 0 0 0  0 0 0 0.5 0" type="matrix" in="shadowBlurOuter1" result="shadowMatrixOuter1"></feColorMatrix>
            <feMerge>
                <feMergeNode in="shadowMatrixOuter1"></feMergeNode>
                <feMergeNode in="SourceGraphic"></feMergeNode>
            </feMerge>
        </filter>
        <filter x="-30.0%" y="-30.0%" width="160.0%" height="160.0%" filterUnits="objectBoundingBox" id="filter-21">
            <feOffset dx="0" dy="0" in="SourceAlpha" result="shadowOffsetOuter1"></feOffset>
            <feGaussianBlur stdDeviation="4" in="shadowOffsetOuter1" result="shadowBlurOuter1"></feGaussianBlur>
            <feColorMatrix values="0 0 0 0 0   0 0 0 0 0   0 0 0 0 0  0 0 0 0.5 0" type="matrix" in="shadowBlurOuter1" result="shadowMatrixOuter1"></feColorMatrix>
            <feMerge>
                <feMergeNode in="shadowMatrixOuter1"></feMergeNode>
                <feMergeNode in="SourceGraphic"></feMergeNode>
            </feMerge>
        </filter>
        <filter x="-30.0%" y="-30.0%" width="160.0%" height="160.0%" filterUnits="objectBoundingBox" id="filter-22">
            <feOffset dx="0" dy="0" in="SourceAlpha" result="shadowOffsetOuter1"></feOffset>
            <feGaussianBlur stdDeviation="4" in="shadowOffsetOuter1" result="shadowBlurOuter1"></feGaussianBlur>
            <feColorMatrix values="0 0 0 0 0   0 0 0 0 0   0 0 0 0 0  0 0 0 0.5 0" type="matrix" in="shadowBlurOuter1" result="shadowMatrixOuter1"></feColorMatrix>
            <feMerge>
                <feMergeNode in="shadowMatrixOuter1"></feMergeNode>
                <feMergeNode in="SourceGraphic"></feMergeNode>
            </feMerge>
        </filter>
        <filter x="-30.0%" y="-30.0%" width="160.0%" height="160.0%" filterUnits="objectBoundingBox" id="filter-23">
            <feOffset dx="0" dy="0" in="SourceAlpha" result="shadowOffsetOuter1"></feOffset>
            <feGaussianBlur stdDeviation="4" in="shadowOffsetOuter1" result="shadowBlurOuter1"></feGaussianBlur>
            <feColorMatrix values="0 0 0 0 0   0 0 0 0 0   0 0 0 0 0  0 0 0 0.5 0" type="matrix" in="shadowBlurOuter1" result="shadowMatrixOuter1"></feColorMatrix>
            <feMerge>
                <feMergeNode in="shadowMatrixOuter1"></feMergeNode>
                <feMergeNode in="SourceGraphic"></feMergeNode>
            </feMerge>
        </filter>
        <filter x="-30.0%" y="-30.0%" width="160.0%" height="160.0%" filterUnits="objectBoundingBox" id="filter-24">
            <feOffset dx="0" dy="0" in="SourceAlpha" result="shadowOffsetOuter1"></feOffset>
            <feGaussianBlur stdDeviation="4" in="shadowOffsetOuter1" result="shadowBlurOuter1"></feGaussianBlur>
            <feColorMatrix values="0 0 0 0 0   0 0 0 0 0   0 0 0 0 0  0 0 0 0.5 0" type="matrix" in="shadowBlurOuter1" result="shadowMatrixOuter1"></feColorMatrix>
            <feMerge>
                <feMergeNode in="shadowMatrixOuter1"></feMergeNode>
                <feMergeNode in="SourceGraphic"></feMergeNode>
            </feMerge>
        </filter>
        <filter x="-33.8%" y="-33.8%" width="167.5%" height="167.5%" filterUnits="objectBoundingBox" id="filter-25">
            <feOffset dx="0" dy="0" in="SourceAlpha" result="shadowOffsetOuter1"></feOffset>
            <feGaussianBlur stdDeviation="4.5" in="shadowOffsetOuter1" result="shadowBlurOuter1"></feGaussianBlur>
            <feColorMatrix values="0 0 0 0 0   0 0 0 0 0   0 0 0 0 0  0 0 0 0.5 0" type="matrix" in="shadowBlurOuter1" result="shadowMatrixOuter1"></feColorMatrix>
            <feMerge>
                <feMergeNode in="shadowMatrixOuter1"></feMergeNode>
                <feMergeNode in="SourceGraphic"></feMergeNode>
            </feMerge>
        </filter>
        <filter x="-30.0%" y="-30.0%" width="160.0%" height="160.0%" filterUnits="objectBoundingBox" id="filter-26">
            <feOffset dx="0" dy="0" in="SourceAlpha" result="shadowOffsetOuter1"></feOffset>
            <feGaussianBlur stdDeviation="4" in="shadowOffsetOuter1" result="shadowBlurOuter1"></feGaussianBlur>
            <feColorMatrix values="0 0 0 0 0   0 0 0 0 0   0 0 0 0 0  0 0 0 0.5 0" type="matrix" in="shadowBlurOuter1" result="shadowMatrixOuter1"></feColorMatrix>
            <feMerge>
                <feMergeNode in="shadowMatrixOuter1"></feMergeNode>
                <feMergeNode in="SourceGraphic"></feMergeNode>
            </feMerge>
        </filter>
    </defs>
    <g id="Test-Case-3" stroke="none" stroke-width="1" fill="none" fill-rule="evenodd">
        <g id="18-Overview" transform="translate(-453.000000, -85.000000)">
            <g id="Group-11" transform="translate(540.000000, 152.000000)">
                <g id="Schlüsselbein" transform="translate(0.257760, 27.151287)" fill-rule="nonzero">
                    <g id="Shape">
                        <use fill="black" fill-opacity="1" filter="url(#filter-2)" xlink:href="#path-1"></use>
                        <use fill="#2D303E" fill-rule="evenodd" xlink:href="#path-1"></use>
                    </g>
                    <g id="Shape">
                        <use fill="black" fill-opacity="1" filter="url(#filter-4)" xlink:href="#path-3"></use>
                        <use fill="#2D303E" fill-rule="evenodd" xlink:href="#path-3"></use>
                    </g>
                </g>
                <g id="Luftröhre" transform="translate(165.734214, 0.000000)" fill="#2D303E" fill-rule="nonzero">
                    <path d="M265.459196,268.54388 C266.159658,271.455758 266.181744,273.911178 265.869376,276.426411 C265.547542,278.941643 263.878424,282.94272 261.117596,284.985756 C258.325215,287.03194 253.923665,291.725571 251.677139,292.981613 C249.424303,294.225063 245.360363,296.271247 243.833231,297.240823 C242.287167,298.235584 233.65445,301.827423 231.625635,302.242956 C229.59051,302.642749 225.618072,302.535718 223.07811,302.362579 C220.5697,302.161109 207.232531,297.099165 203.0834,293.139012 C193.289557,283.786377 153.306448,235.008499 145.430987,192.416393 C144.932461,189.753206 147.835275,140.518872 147.724842,92.9561134 C147.63965,46.7784635 144.528591,2.19368908 144.528591,2.19368908 L115.427879,0.75821234 C114.878869,37.3093537 112.171679,67.8730461 112.149592,93.5888564 C112.083333,171.608277 115.383706,204.78164 106.883509,224.223536 C99.4371597,241.28871 89.7253533,250.01175 77.7323137,252.00127 C74.7190664,252.495502 68.1561824,250.383211 64.8274118,247.849091 C54.4309199,239.913045 48.4833062,224.613885 46.703755,219.293807 C46.5933218,218.934937 45.8108241,217.490017 40.8539535,219.523609 C36.2820212,221.393506 37.1433998,223.329511 37.1433998,223.329511 C37.1433998,223.329511 44.0533595,239.761942 46.3093509,247.313935 C48.5811185,254.86278 38.5253917,252.668641 32.6661245,247.849091 C26.816323,243.010653 22.0834739,235.071459 21.2599582,234.341129 C20.4459081,233.617094 13.3056165,238.773478 13.3056165,238.773478 C13.3056165,238.773478 19.969468,250.320251 23.1215455,252.325512 C26.2767782,254.311884 27.3116946,255.687549 27.3116946,255.687549 C27.3116946,255.687549 20.0956773,257.532263 16.2494486,257.809285 C12.4347722,258.11149 4.34791071,261.325573 4.34791071,261.325573 L4.40154967,270.92375 C4.40154967,270.92375 5.60684857,273.218624 16.946755,269.318282 C28.2961272,265.427385 38.7557237,263.186026 47.2212131,265.427385 C55.6835473,267.678187 66.0989706,269.623636 69.9641307,275.031858 C73.8324461,280.449523 73.9239478,288.055031 69.9641307,298.726668 C66.0989706,309.184242 64.4456287,317.620816 57.9142969,322.86849 C51.4050518,328.128757 38.4054929,330.562142 32.1360454,328.371151 C25.8634427,326.186456 25.8886846,337.874889 25.8886846,337.874889 C25.8886846,337.874889 42.0340105,347.318815 55.2828328,337.431024 C68.5379655,327.543234 48.3129237,345.6315 42.7029199,351.030278 C37.1213132,356.441647 26.7563736,365.000992 20.1272296,365.636883 C14.8327491,366.162595 9.84117091,366.033528 4.5782427,365.208758 C3.42342752,365.01988 2.38851118,363.990492 0.892930865,367.544556 C-0.107277913,369.949609 0.233487223,372.408178 0.880309934,374.048273 C1.53975358,375.738736 3.84938394,377.230876 7.62935276,377.221432 C11.4250977,377.230876 14.6245037,376.846823 13.48862,378.137493 C12.3180286,379.472235 10.8634663,380.731425 6.93520156,381.600266 C3.01324726,382.481699 0.577407591,382.563546 0.246108154,385.944472 C8.57092175e-14,388.642287 0.826670977,390.165907 1.85527685,391.610827 C4.11126826,394.708435 5.8119387,392.530036 9.49725054,391.31177 C13.1573205,390.087207 22.8596612,386.545735 26.09693,384.061983 C29.3278883,381.581378 34.0986002,379.317984 37.0676742,376.50999 C40.0588348,373.692552 35.2123973,378.310632 32.4389478,383.86366 C29.649722,389.416689 28.8325168,392.592996 27.3653335,395.939294 C25.866598,399.291887 25.0052194,402.75466 28.0184667,405.638205 C31.0348692,408.528047 33.8398711,408.701185 35.1145851,408.546935 C36.7584614,408.380092 37.6734789,408.3675 38.7620342,405.543766 C39.8316581,402.713736 45.9938276,385.86892 48.6915516,380.753461 C51.3924308,375.650593 52.5914193,367.132171 54.7306671,364.635827 C56.8762253,362.104855 56.2010055,363.354601 56.1473666,367.547704 C56.1284352,371.740807 56.1284352,375.952798 55.2291938,379.384091 C54.9010496,380.589766 55.055656,382.349484 56.7689474,383.523679 C58.4633074,384.701022 65.0293467,385.141738 67.8564352,383.193141 C70.6929895,381.241397 71.6364041,375.405051 71.8667361,371.841542 C72.1317756,368.296922 73.2645042,349.283151 79.3604138,336.763654 C85.4563235,324.263044 93.6883257,314.176931 99.3235713,302.48535 C104.974593,290.784326 116.541676,258.819785 121.27137,249.923606 C126.165136,240.700039 133.980648,230.012663 133.980648,230.012663 C135.842235,235.934004 136.564783,242.658079 140.209077,250.427283 C153.909098,279.744377 163.122377,288.627963 178.456808,305.368896 C193.784929,322.081497 208.204343,327.275656 216.414258,339.146671 C224.636795,351.008242 225.861025,352.528714 223.317907,356.170921 C220.771635,359.809981 220.178451,360.867701 218.032893,363.058691 C215.855782,365.259126 215.167941,365.372453 217.016908,368.306366 C217.695283,369.392418 219.515852,371.095472 221.547822,371.917094 C223.595568,372.735567 226.141841,371.542485 227.192533,369.984237 C229.265521,366.852002 230.391939,365.000992 230.600185,364.129003 C230.833672,363.275902 231.997953,369.984237 234.165598,377.863619 C236.336398,385.743001 233.629208,397.588833 230.641203,401.706384 C227.659508,405.839676 237.633198,409.59521 237.633198,409.59521 C237.633198,409.59521 240.018554,405.940411 242.441773,397.066269 C244.864992,388.21731 244.022545,397.170152 244.505295,401.571021 C244.984891,405.971891 244.322292,406.09781 244.035166,409.702242 C243.763816,413.303525 244.748248,414.46198 247.761495,413.989784 C250.758967,413.545919 252.970785,415.019172 253.087528,410.772553 C253.201117,406.522787 253.330481,392.205795 251.853832,387.864737 C250.39927,383.514235 250.853624,383.026299 252.582691,385.003227 C254.346466,386.970712 258.066486,392.511148 259.827105,395.696899 C261.587725,398.89839 268.29575,390.20683 268.29575,390.20683 C268.29575,390.20683 265.304589,383.042039 261.508844,379.015778 C257.71941,375.008406 246.713958,352.654633 243.438827,347.850823 C240.163695,343.05016 231.934848,328.736316 229.735651,324.810791 C227.504901,320.897858 233.78697,322.796087 239.359111,324.810791 C244.959649,326.853827 247.739409,327.250472 250.411891,331.906328 C253.071752,336.559035 256.643476,349.075385 257.413352,353.548658 C257.413352,353.548658 260.404513,355.937971 263.00127,355.59799 C265.758943,355.229677 268.50084,354.219177 268.50084,354.219177 C268.50084,354.219177 267.699411,347.296779 266.828567,341.879113 C265.960878,336.470892 266.096553,333.455131 265.263571,332.926272 C264.417969,332.422596 281.197497,335.97666 281.894803,336.20961 C283.0086,336.581071 282.749871,337.371213 283.933084,332.800353 C285.109985,328.204309 286.958952,325.396315 285.889328,324.326003 C285.1794,323.617709 282.913943,325.207436 275.817825,322.88423 C271.829611,321.590413 263.121168,319.865322 260.316167,315.785546 C257.504854,311.715214 263.695421,305.05095 268.216869,302.523126 C272.690989,300.007894 277.411217,299.825311 281.276378,301.109685 C285.113141,302.387763 289.864921,305.139094 289.864921,305.139094 L293.146363,293.466401 C293.146363,293.466401 286.574013,291.004684 281.85694,289.969 C277.146178,288.923873 275.773652,286.732882 278.029643,285.473692 C280.282479,284.220798 281.484623,284.519855 285.151003,281.488355 C288.830005,278.437967 294.029828,278.412783 294.534666,276.398079 C295.058434,274.402263 292.212414,267.508197 289.154994,266.825086 C287.056764,266.365482 285.602202,268.35815 282.614196,271.270027 C279.604104,274.169312 280.888284,271.96573 279.074025,273.823035 C277.613152,275.346655 276.303731,275.866071 277.04521,273.010857 C277.755138,270.136756 276.669738,262.266818 275.82098,260.516543 C274.972223,258.772565 273.830028,260.050643 271.602434,260.289889 C270.491792,260.403216 264.761889,265.609967 265.459196,268.54388 Z"></path>
                </g>
                <g id="Flügel-links" transform="translate(330.462897, 98.261801)">
                    <g fill-rule="nonzero">
                        <use fill="black" fill-opacity="1" filter="url(#filter-8)" xlink:href="#path-7"></use>
                        <use stroke="url(#linearGradient-6)" stroke-width="1" fill="url(#linearGradient-5)" fill-rule="evenodd" xlink:href="#path-7"></use>
                    </g>
                    <path d="M51.7968842,328.511445 C76.4609722,343.766708 212.203081,395.888065 208.404251,222.38197" id="Lappentrenner" stroke="#4E4E4E"></path>
                </g>
                <g id="Flügel-rechts" transform="translate(40.400345, 94.383046)">
                    <g fill-rule="nonzero">
                        <use fill="black" fill-opacity="1" filter="url(#filter-12)" xlink:href="#path-11"></use>
                        <use stroke="url(#linearGradient-6)" stroke-width="1" fill="url(#linearGradient-5)" fill-rule="evenodd" xlink:href="#path-11"></use>
                    </g>
                    <path d="M5.17968842,249.794255 C15.7208192,265.132682 32.1083444,270.921067 67.9167231,262.398661 C103.715662,253.863569 164.099035,241.671486 183.450663,229.596756 C202.789705,217.515683 218.113678,207.550146 222.726602,187.473173" id="Lappentrenner" stroke="#4E4E4E" stroke-width="2"></path>
                    <path d="M5.17968842,249.533258 C8.09605107,280.921142 40.6161862,394.369349 94.5293137,421.491409" id="Lappentrenner" stroke="#4E4E4E"></path>
                </g>
                <g id="S11-14-rechts" filter="url(#filter-13)" transform="translate(127.000000, 321.000000)">
                    <ellipse id="Oval" fill="#DADCE1" opacity="0.699999988" cx="29.6052632" cy="29.559454" rx="29.6052632" ry="29.559454"></ellipse>
                    <text id="11--14" font-family="Roboto-Bold, Roboto" font-size="11.8546723" font-weight="bold" line-spacing="9.31438536" fill="#191B22">
                        <tspan x="6" y="24">11- 14</tspan>
                    </text>
                </g>
                <g id="S11-14-links" filter="url(#filter-14)" transform="translate(412.000000, 321.000000)">
                    <ellipse id="Oval" fill="#DADCE1" opacity="0.699999988" cx="29.6052632" cy="29.559454" rx="29.6052632" ry="29.559454"></ellipse>
                    <text id="11---14" font-family="Roboto-Bold, Roboto" font-size="11.8546723" font-weight="bold" line-spacing="9.31438536" fill="#191B22">
                        <tspan x="2.13923779" y="19.7940455">11 - 14</tspan>
                    </text>
                </g>
                <g id="S10-rechts" filter="url(#filter-15)" transform="translate(209.000000, 250.000000)">
                    <ellipse id="Oval" fill="#DADCE1" opacity="0.699999988" cx="19.7368421" cy="19.7063027" rx="19.7368421" ry="19.7063027"></ellipse>
                    <text id="10" font-family="Roboto-Bold, Roboto" font-size="11.9148936" font-weight="bold" fill="#191B22">
                        <tspan x="12.9009046" y="11">10</tspan>
                    </text>
                </g>
                <path d="M241.257412,213.476496 C241.257412,212.036411 238.566484,211.317817 236.950193,211.317817 C234.796583,211.317817 235.338236,211.677114 233.721945,212.757902 C232.64514,213.117199 232.105654,212.757902 231.568335,213.835793 C231.568335,214.19509 231.568335,214.916582 231.568335,215.275879 C231.568335,215.275879 229.954211,215.994473 229.954211,216.356667 C229.954211,216.715964 229.954211,217.434558 229.954211,217.793855 C227.800602,217.075261 225.649159,216.715964 223.495549,217.075261 C221.341939,217.434558 221.881425,217.793855 220.265134,218.515347 C220.265134,218.515347 220.265134,218.874644 219.727815,219.233941 C219.188329,219.233941 218.65101,219.233941 218.111525,219.233941 C215.960082,220.316178 215.960082,221.753366 216.497401,223.554198 C217.036886,225.35358 217.574205,226.43292 220.80462,226.43292 C219.727815,228.232303 218.111525,228.952345 220.80462,230.751728 C221.881425,231.471771 224.032868,232.191814 226.186478,232.191814 C225.649159,232.910408 225.109673,233.272602 225.109673,233.991196 C225.109673,234.70979 226.186478,235.790579 226.186478,236.149876 C225.649159,237.949258 222.418744,238.308555 224.032868,240.468684 C224.032868,241.188727 225.109673,241.548024 225.109673,241.907321 C225.109673,242.628812 224.032868,243.347406 223.495549,243.708152 C222.418744,245.507535 222.956063,246.586874 225.109673,247.667663 C223.495549,248.386257 221.881425,249.467046 221.341939,250.907131 C220.80462,251.98792 221.341939,253.065811 221.341939,254.146599 C220.265134,255.585236 219.188329,259.905493 222.418744,260.624087 C219.188329,263.144961 227.263283,267.105921 228.877407,264.944344 C226.723797,265.30509 228.877407,266.382981 229.954211,266.382981 C231.568335,266.743726 232.64514,266.382981 233.184626,265.662938 C235.338236,264.583598 234.796583,262.782767 234.259264,261.345579 C234.796583,261.345579 235.875555,260.983384 236.412874,260.624087 C238.566484,261.704876 240.178441,263.144961 242.86937,262.42347 C244.48566,262.064173 247.713908,260.983384 246.63927,259.546196 C248.251227,259.546196 249.867518,259.18545 250.404837,258.10611 C250.944323,257.025322 249.330199,256.306728 249.867518,255.586685 C249.867518,254.866642 250.404837,255.225939 250.944323,254.866642 C251.481642,254.507345 251.481642,254.148048 252.021128,253.787302 C252.021128,253.426557 252.021128,252.707963 252.021128,252.347217 C252.558447,252.347217 254.172571,251.989369 254.712056,251.627174 C257.402985,250.547834 261.170719,249.827791 263.863814,248.387706 C265.477938,248.028409 268.71052,244.788941 265.477938,244.068898 C268.168867,242.630261 265.477938,240.109387 262.78701,239.390793 C267.094229,237.950707 270.324644,235.792028 270.324644,232.551111 C270.324644,231.471771 269.787324,230.392431 268.712686,229.311642 C267.633715,228.952345 264.942786,227.51226 264.405467,228.593048 C264.942786,227.152963 261.714538,227.51226 260.098247,227.51226 C259.021443,226.073623 259.021443,224.272792 255.793195,225.35358 C255.793195,224.272792 256.869999,223.554198 256.869999,222.473409 C256.869999,221.394069 255.793195,221.033324 255.253709,219.953984 C254.71639,218.874644 255.253709,217.434558 252.56278,217.075261 C252.025461,216.715964 250.948656,216.356667 250.948656,217.434558 C252.025461,215.275879 250.948656,214.19509 248.255561,213.117199 C246.643603,212.395708 243.413189,210.958519 242.336384,212.395708 C242.873703,211.317817 241.799065,210.596325 240.72226,210.596325 C239.108136,210.596325 238.570817,211.317817 237.491845,212.395708" id="Primärtumor" fill="#FB355D" fill-rule="nonzero"></path>
                <text id="T4" font-family="Roboto-Bold, Roboto" font-size="11.9099998" font-weight="bold" fill="#FFFFFF">
                    <tspan x="235.255757" y="224.817538">T4</tspan>
                </text>
                <g id="S10-links" filter="url(#filter-16)" transform="translate(356.000000, 251.000000)">
                    <ellipse id="Oval" fill="#DADCE1" opacity="0.699999988" cx="19.7368421" cy="19.7063027" rx="19.7368421" ry="19.7063027"></ellipse>
                    <text id="10" font-family="Roboto-Bold, Roboto" font-size="11.8546723" font-weight="bold" fill="#191B22">
                        <tspan x="12.9354554" y="11">10</tspan>
                    </text>
                </g>
                <g id="S7/8/9" filter="url(#filter-17)" transform="translate(272.000000, 315.000000)">
                    <ellipse id="Oval" fill="#FB355D" cx="29.6052632" cy="29.5093532" rx="29.6052632" ry="29.5093532"></ellipse>
                    <text id="7---9" font-family="Roboto-Bold, Roboto" font-size="11.8546723" font-weight="bold" fill="#FFFFFF">
                        <tspan x="17.5537848" y="24">7 - 9</tspan>
                    </text>
                </g>
                <g id="S6-links" filter="url(#filter-18)" transform="translate(401.000000, 155.000000)">
                    <ellipse id="Oval" fill="#DADCE1" opacity="0.699999988" cx="19.8371046" cy="19.80641" rx="19.8371046" ry="19.80641"></ellipse>
                    <text id="6" font-family="Roboto-Bold, Roboto" font-size="11.9148936" font-weight="bold" fill="#191B22">
                        <tspan x="16.4191359" y="11">6</tspan>
                    </text>
                </g>
                <g id="S5-links" filter="url(#filter-19)" transform="translate(425.000000, 201.000000)">
                    <ellipse id="Oval" fill="#DADCE1" opacity="0.699999988" cx="19.7368421" cy="19.7063027" rx="19.7368421" ry="19.7063027"></ellipse>
                    <text id="5" font-family="Roboto-Bold, Roboto" font-size="11.8546723" font-weight="bold" fill="#191B22">
                        <tspan x="16.3361488" y="11">5</tspan>
                    </text>
                </g>
                <g id="S4-rechts" filter="url(#filter-20)" transform="translate(234.000000, 146.000000)">
                    <ellipse id="Oval" fill="#FE2A50" cx="19.7368421" cy="19.7063027" rx="19.7368421" ry="19.7063027"></ellipse>
                    <text id="4" font-family="Roboto-Bold, Roboto" font-size="11.8546723" font-weight="bold" fill="#FFFFFF">
                        <tspan x="16.3361488" y="11">4</tspan>
                    </text>
                </g>
                <g id="S4-rechts" filter="url(#filter-21)" transform="translate(317.000000, 146.000000)">
                    <ellipse id="Oval" fill="#FE2A50" cx="19.7368421" cy="19.7063027" rx="19.7368421" ry="19.7063027"></ellipse>
                    <text id="4" font-family="Roboto-Bold, Roboto" font-size="11.8546723" font-weight="bold" fill="#FFFFFF">
                        <tspan x="16.3361488" y="11">4</tspan>
                    </text>
                </g>
                <g id="S3" filter="url(#filter-22)" transform="translate(276.000000, 213.000000)">
                    <ellipse id="Oval" fill="#DADCE1" opacity="0.699999988" cx="19.7368421" cy="19.7063027" rx="19.7368421" ry="19.7063027"></ellipse>
                    <text id="3" font-family="Roboto-Bold, Roboto" font-size="11.8546723" font-weight="bold" fill="#191B22">
                        <tspan x="16.3361488" y="11">3</tspan>
                    </text>
                </g>
                <g id="S2-rechts" filter="url(#filter-23)" transform="translate(234.000000, 92.000000)">
                    <ellipse id="Oval" fill="#DADCE1" opacity="0.699999988" cx="19.7368421" cy="19.7063027" rx="19.7368421" ry="19.7063027"></ellipse>
                    <text id="2" font-family="Roboto-Bold, Roboto" font-size="11.8546723" font-weight="bold" fill="#191B22">
                        <tspan x="16.3361488" y="11">2</tspan>
                    </text>
                </g>
                <g id="S2-links" filter="url(#filter-24)" transform="translate(317.000000, 93.000000)">
                    <ellipse id="Oval" fill="#DADCE1" opacity="0.699999988" cx="19.7368421" cy="19.7063027" rx="19.7368421" ry="19.7063027"></ellipse>
                    <text id="2" font-family="Roboto-Bold, Roboto" font-size="11.8546723" font-weight="bold" fill="#000000">
                        <tspan x="16.3361488" y="11">2</tspan>
                    </text>
                </g>
                <g id="S1-rechts" filter="url(#filter-25)" transform="translate(203.000000, 15.000000)">
                    <ellipse id="Oval" fill="#DADCE1" opacity="0.699999988" cx="19.8371046" cy="19.80641" rx="19.8371046" ry="19.80641"></ellipse>
                    <text id="1" font-family="Roboto-Bold, Roboto" font-size="11.9148936" font-weight="bold" fill="#191B22">
                        <tspan x="16.4191359" y="11">1</tspan>
                    </text>
                </g>
                <g id="S1-links" filter="url(#filter-26)" transform="translate(344.000000, 15.000000)">
                    <ellipse id="Oval" fill="#DADCE1" opacity="0.699999988" cx="19.7368421" cy="19.7063027" rx="19.7368421" ry="19.7063027"></ellipse>
                    <text id="1" font-family="Roboto-Bold, Roboto" font-size="11.8546723" font-weight="bold" fill="#191B22">
                        <tspan x="16.3361488" y="11">1</tspan>
                    </text>
                </g>
            </g>
        </g>
    </g>
</svg>
